name,density,index,capped,max volume,safe volume,current volume
acetonitrile,0.7859999999999999,C1,True,100,1.2,84.56999999999965
ethanol,0.789,C2,True,100,1.2,85.97999999999962
water,1.0,C3,True,100,1.2,94.86
acetone,0.7909999999999999,C4,True,100,1.2,88.31999999999996
2-propanol,0.7909999999999999,C5,True,100,1.2,100.0
ethyl acetate,0.7909999999999999,C6,True,100,1.2,100.0
